Attempting to map the extent of the Building Safety Crisis
…
  # include to check that for a single Local Authority points are approx.
  # within boundaries of the Local Authority
  # filter(ctyua19nm == "Brighton and Hove") %>% 
  {.}

# confirm number of local authorities in merged  dataset
# there should be 80 features / 80 unique Local Authority names 
# (rather than 81 as the total in la_data won't match a geometry in the LA boundaries dataset)
bsd_geo %>%
  select(ctyua19nm) %>%
  as_tibble() %>% 
  distinct(ctyua19nm)

## # A tibble: 80 x 1
##    ctyua19nm                   
##    <chr>                       
##  1 Bath and North East Somerset
##  2 Enfield                     
##  3 Milton Keynes               
##  4 Sunderland                  
##  5 Wiltshire                   
##  6 Wokingham                   
##  7 Calderdale                  
##  8 Devon                       
##  9 Gateshead                   
## 10 Kirklees                    
## # ... with 70 more rows
…
